^D:\USERS\USER-PC\DOCUMENTS\VISUAL STUDIO 2013\PROJECTS\NIRAKRISHEX16\NIRAKRISHEX16\SOURCEA.CPP
/c /ZI /nologo /W3 /WX- /sdl /Od /Oy- /D _MBCS /Gm /EHsc /RTC1 /MDd /GS /fp:precise /Zc:wchar_t /Zc:forScope /Fo"DEBUG\\" /Fd"DEBUG\VC120.PDB" /Gd /TP /analyze- D:\USERS\USER-PC\DOCUMENTS\VISUAL STUDIO 2013\PROJECTS\NIRAKRISHEX16\NIRAKRISHEX16\SOURCEA.CPP
^D:\USERS\USER-PC\DOCUMENTS\VISUAL STUDIO 2013\PROJECTS\NIRAKRISHEX16\NIRAKRISHEX16\SQLITE3.C
/c /ZI /nologo /W3 /WX- /sdl /Od /Oy- /D _MBCS /Gm /EHsc /RTC1 /MDd /GS /fp:precise /Zc:wchar_t /Zc:forScope /Fo"DEBUG\\" /Fd"DEBUG\VC120.PDB" /Gd /TC /analyze- D:\USERS\USER-PC\DOCUMENTS\VISUAL STUDIO 2013\PROJECTS\NIRAKRISHEX16\NIRAKRISHEX16\SQLITE3.C
