^D:\USERS\USER-PC\DOCUMENTS\VISUAL STUDIO 2013\PROJECTS\NIRAKRISHEX16\NIRAKRISHEX16\SOURCEA.CPP
D:\USERS\USER-PC\DOCUMENTS\VISUAL STUDIO 2013\PROJECTS\NIRAKRISHEX16\NIRAKRISHEX16\DEBUG\VC120.PDB
D:\USERS\USER-PC\DOCUMENTS\VISUAL STUDIO 2013\PROJECTS\NIRAKRISHEX16\NIRAKRISHEX16\DEBUG\VC120.IDB
D:\USERS\USER-PC\DOCUMENTS\VISUAL STUDIO 2013\PROJECTS\NIRAKRISHEX16\NIRAKRISHEX16\DEBUG\SOURCEA.OBJ
^D:\USERS\USER-PC\DOCUMENTS\VISUAL STUDIO 2013\PROJECTS\NIRAKRISHEX16\NIRAKRISHEX16\SQLITE3.C
D:\USERS\USER-PC\DOCUMENTS\VISUAL STUDIO 2013\PROJECTS\NIRAKRISHEX16\NIRAKRISHEX16\DEBUG\VC120.PDB
D:\USERS\USER-PC\DOCUMENTS\VISUAL STUDIO 2013\PROJECTS\NIRAKRISHEX16\NIRAKRISHEX16\DEBUG\VC120.IDB
D:\USERS\USER-PC\DOCUMENTS\VISUAL STUDIO 2013\PROJECTS\NIRAKRISHEX16\NIRAKRISHEX16\DEBUG\SQLITE3.OBJ
